\relax 
\newlabel{eq:cube}{{1}{1}}
\newlabel{eq:cube@cref}{{[equation][1][]1}{1}}
\@writefile{lof}{\contentsline {figure}{\numberline {1}{\ignorespaces Cubic Root function implemented by root finding compared with the crbt from math.h}}{1}}
\newlabel{fig:cube}{{1}{1}}
\newlabel{fig:cube@cref}{{[figure][1][]1}{1}}
