<?xml version="1.0" encoding="utf-8"  standalone="no"?>
<svg 
 width="600" height="480"
 viewBox="0 0 600 480"
 xmlns="http://www.w3.org/2000/svg"
 xmlns:xlink="http://www.w3.org/1999/xlink"
>

<title>Gnuplot</title>
<desc>Produced by GNUPLOT 5.0 patchlevel 7 </desc>

<g id="gnuplot_canvas">

<rect x="0" y="0" width="600" height="480" fill="#ffffff"/>
<defs>

	<circle id='gpDot' r='0.5' stroke-width='0.5'/>
	<path id='gpPt0' stroke-width='0.222' stroke='currentColor' d='M-1,0 h2 M0,-1 v2'/>
	<path id='gpPt1' stroke-width='0.222' stroke='currentColor' d='M-1,-1 L1,1 M1,-1 L-1,1'/>
	<path id='gpPt2' stroke-width='0.222' stroke='currentColor' d='M-1,0 L1,0 M0,-1 L0,1 M-1,-1 L1,1 M-1,1 L1,-1'/>
	<rect id='gpPt3' stroke-width='0.222' stroke='currentColor' x='-1' y='-1' width='2' height='2'/>
	<rect id='gpPt4' stroke-width='0.222' stroke='currentColor' fill='currentColor' x='-1' y='-1' width='2' height='2'/>
	<circle id='gpPt5' stroke-width='0.222' stroke='currentColor' cx='0' cy='0' r='1'/>
	<use xlink:href='#gpPt5' id='gpPt6' fill='currentColor' stroke='none'/>
	<path id='gpPt7' stroke-width='0.222' stroke='currentColor' d='M0,-1.33 L-1.33,0.67 L1.33,0.67 z'/>
	<use xlink:href='#gpPt7' id='gpPt8' fill='currentColor' stroke='none'/>
	<use xlink:href='#gpPt7' id='gpPt9' stroke='currentColor' transform='rotate(180)'/>
	<use xlink:href='#gpPt9' id='gpPt10' fill='currentColor' stroke='none'/>
	<use xlink:href='#gpPt3' id='gpPt11' stroke='currentColor' transform='rotate(45)'/>
	<use xlink:href='#gpPt11' id='gpPt12' fill='currentColor' stroke='none'/>
	<path id='gpPt13' stroke-width='0.222' stroke='currentColor' d='M0,1.330 L1.265,0.411 L0.782,-1.067 L-0.782,-1.076 L-1.265,0.411 z'/>
	<use xlink:href='#gpPt13' id='gpPt14' fill='currentColor' stroke='none'/>
	<filter id='textbox' filterUnits='objectBoundingBox' x='0' y='0' height='1' width='1'>
	  <feFlood flood-color='#FFFFFF' flood-opacity='1' result='bgnd'/>
	  <feComposite in='SourceGraphic' in2='bgnd' operator='atop'/>
	</filter>
	<filter id='greybox' filterUnits='objectBoundingBox' x='0' y='0' height='1' width='1'>
	  <feFlood flood-color='lightgrey' flood-opacity='1' result='grey'/>
	  <feComposite in='SourceGraphic' in2='grey' operator='atop'/>
	</filter>
</defs>
<g fill="none" color="#FFFFFF" stroke="currentColor" stroke-width="1.00" stroke-linecap="butt" stroke-linejoin="miter">
</g>
<g fill="none" color="black" stroke="currentColor" stroke-width="1.00" stroke-linecap="butt" stroke-linejoin="miter">
	<path stroke='black'  d='M80.9,413.4 L71.9,413.4 M566.0,413.4 L575.0,413.4  '/>	<g transform="translate(63.6,417.3)" stroke="none" fill="black" font-family="Arial" font-size="12.00"  text-anchor="end">
		<text><tspan font-family="Arial" > 1</tspan></text>
	</g>
</g>
<g fill="none" color="black" stroke="currentColor" stroke-width="1.00" stroke-linecap="butt" stroke-linejoin="miter">
	<path stroke='black'  d='M80.9,378.4 L71.9,378.4 M566.0,378.4 L575.0,378.4  '/>	<g transform="translate(63.6,382.3)" stroke="none" fill="black" font-family="Arial" font-size="12.00"  text-anchor="end">
		<text><tspan font-family="Arial" > 1.5</tspan></text>
	</g>
</g>
<g fill="none" color="black" stroke="currentColor" stroke-width="1.00" stroke-linecap="butt" stroke-linejoin="miter">
	<path stroke='black'  d='M80.9,343.3 L71.9,343.3 M566.0,343.3 L575.0,343.3  '/>	<g transform="translate(63.6,347.2)" stroke="none" fill="black" font-family="Arial" font-size="12.00"  text-anchor="end">
		<text><tspan font-family="Arial" > 2</tspan></text>
	</g>
</g>
<g fill="none" color="black" stroke="currentColor" stroke-width="1.00" stroke-linecap="butt" stroke-linejoin="miter">
	<path stroke='black'  d='M80.9,308.3 L71.9,308.3 M566.0,308.3 L575.0,308.3  '/>	<g transform="translate(63.6,312.2)" stroke="none" fill="black" font-family="Arial" font-size="12.00"  text-anchor="end">
		<text><tspan font-family="Arial" > 2.5</tspan></text>
	</g>
</g>
<g fill="none" color="black" stroke="currentColor" stroke-width="1.00" stroke-linecap="butt" stroke-linejoin="miter">
	<path stroke='black'  d='M80.9,273.3 L71.9,273.3 M566.0,273.3 L575.0,273.3  '/>	<g transform="translate(63.6,277.2)" stroke="none" fill="black" font-family="Arial" font-size="12.00"  text-anchor="end">
		<text><tspan font-family="Arial" > 3</tspan></text>
	</g>
</g>
<g fill="none" color="black" stroke="currentColor" stroke-width="1.00" stroke-linecap="butt" stroke-linejoin="miter">
	<path stroke='black'  d='M80.9,238.2 L71.9,238.2 M566.0,238.2 L575.0,238.2  '/>	<g transform="translate(63.6,242.1)" stroke="none" fill="black" font-family="Arial" font-size="12.00"  text-anchor="end">
		<text><tspan font-family="Arial" > 3.5</tspan></text>
	</g>
</g>
<g fill="none" color="black" stroke="currentColor" stroke-width="1.00" stroke-linecap="butt" stroke-linejoin="miter">
	<path stroke='black'  d='M80.9,203.2 L71.9,203.2 M566.0,203.2 L575.0,203.2  '/>	<g transform="translate(63.6,207.1)" stroke="none" fill="black" font-family="Arial" font-size="12.00"  text-anchor="end">
		<text><tspan font-family="Arial" > 4</tspan></text>
	</g>
</g>
<g fill="none" color="black" stroke="currentColor" stroke-width="1.00" stroke-linecap="butt" stroke-linejoin="miter">
	<path stroke='black'  d='M80.9,168.2 L71.9,168.2 M566.0,168.2 L575.0,168.2  '/>	<g transform="translate(63.6,172.1)" stroke="none" fill="black" font-family="Arial" font-size="12.00"  text-anchor="end">
		<text><tspan font-family="Arial" > 4.5</tspan></text>
	</g>
</g>
<g fill="none" color="black" stroke="currentColor" stroke-width="1.00" stroke-linecap="butt" stroke-linejoin="miter">
	<path stroke='black'  d='M80.9,133.2 L71.9,133.2 M566.0,133.2 L575.0,133.2  '/>	<g transform="translate(63.6,137.1)" stroke="none" fill="black" font-family="Arial" font-size="12.00"  text-anchor="end">
		<text><tspan font-family="Arial" > 5</tspan></text>
	</g>
</g>
<g fill="none" color="black" stroke="currentColor" stroke-width="1.00" stroke-linecap="butt" stroke-linejoin="miter">
	<path stroke='black'  d='M80.9,98.1 L71.9,98.1 M566.0,98.1 L575.0,98.1  '/>	<g transform="translate(63.6,102.0)" stroke="none" fill="black" font-family="Arial" font-size="12.00"  text-anchor="end">
		<text><tspan font-family="Arial" > 5.5</tspan></text>
	</g>
</g>
<g fill="none" color="black" stroke="currentColor" stroke-width="1.00" stroke-linecap="butt" stroke-linejoin="miter">
	<path stroke='black'  d='M80.9,63.1 L71.9,63.1 M566.0,63.1 L575.0,63.1  '/>	<g transform="translate(63.6,67.0)" stroke="none" fill="black" font-family="Arial" font-size="12.00"  text-anchor="end">
		<text><tspan font-family="Arial" > 6</tspan></text>
	</g>
</g>
<g fill="none" color="black" stroke="currentColor" stroke-width="1.00" stroke-linecap="butt" stroke-linejoin="miter">
	<path stroke='black'  d='M80.9,413.4 L80.9,422.4 M80.9,63.1 L80.9,54.1  '/>	<g transform="translate(80.9,444.3)" stroke="none" fill="black" font-family="Arial" font-size="12.00"  text-anchor="middle">
		<text><tspan font-family="Arial" > 0</tspan></text>
	</g>
</g>
<g fill="none" color="black" stroke="currentColor" stroke-width="1.00" stroke-linecap="butt" stroke-linejoin="miter">
	<path stroke='black'  d='M134.8,413.4 L134.8,422.4 M134.8,63.1 L134.8,54.1  '/>	<g transform="translate(134.8,444.3)" stroke="none" fill="black" font-family="Arial" font-size="12.00"  text-anchor="middle">
		<text><tspan font-family="Arial" > 1</tspan></text>
	</g>
</g>
<g fill="none" color="black" stroke="currentColor" stroke-width="1.00" stroke-linecap="butt" stroke-linejoin="miter">
	<path stroke='black'  d='M188.7,413.4 L188.7,422.4 M188.7,63.1 L188.7,54.1  '/>	<g transform="translate(188.7,444.3)" stroke="none" fill="black" font-family="Arial" font-size="12.00"  text-anchor="middle">
		<text><tspan font-family="Arial" > 2</tspan></text>
	</g>
</g>
<g fill="none" color="black" stroke="currentColor" stroke-width="1.00" stroke-linecap="butt" stroke-linejoin="miter">
	<path stroke='black'  d='M242.6,413.4 L242.6,422.4 M242.6,63.1 L242.6,54.1  '/>	<g transform="translate(242.6,444.3)" stroke="none" fill="black" font-family="Arial" font-size="12.00"  text-anchor="middle">
		<text><tspan font-family="Arial" > 3</tspan></text>
	</g>
</g>
<g fill="none" color="black" stroke="currentColor" stroke-width="1.00" stroke-linecap="butt" stroke-linejoin="miter">
	<path stroke='black'  d='M296.5,413.4 L296.5,422.4 M296.5,63.1 L296.5,54.1  '/>	<g transform="translate(296.5,444.3)" stroke="none" fill="black" font-family="Arial" font-size="12.00"  text-anchor="middle">
		<text><tspan font-family="Arial" > 4</tspan></text>
	</g>
</g>
<g fill="none" color="black" stroke="currentColor" stroke-width="1.00" stroke-linecap="butt" stroke-linejoin="miter">
	<path stroke='black'  d='M350.4,413.4 L350.4,422.4 M350.4,63.1 L350.4,54.1  '/>	<g transform="translate(350.4,444.3)" stroke="none" fill="black" font-family="Arial" font-size="12.00"  text-anchor="middle">
		<text><tspan font-family="Arial" > 5</tspan></text>
	</g>
</g>
<g fill="none" color="black" stroke="currentColor" stroke-width="1.00" stroke-linecap="butt" stroke-linejoin="miter">
	<path stroke='black'  d='M404.3,413.4 L404.3,422.4 M404.3,63.1 L404.3,54.1  '/>	<g transform="translate(404.3,444.3)" stroke="none" fill="black" font-family="Arial" font-size="12.00"  text-anchor="middle">
		<text><tspan font-family="Arial" > 6</tspan></text>
	</g>
</g>
<g fill="none" color="black" stroke="currentColor" stroke-width="1.00" stroke-linecap="butt" stroke-linejoin="miter">
	<path stroke='black'  d='M458.2,413.4 L458.2,422.4 M458.2,63.1 L458.2,54.1  '/>	<g transform="translate(458.2,444.3)" stroke="none" fill="black" font-family="Arial" font-size="12.00"  text-anchor="middle">
		<text><tspan font-family="Arial" > 7</tspan></text>
	</g>
</g>
<g fill="none" color="black" stroke="currentColor" stroke-width="1.00" stroke-linecap="butt" stroke-linejoin="miter">
	<path stroke='black'  d='M512.1,413.4 L512.1,422.4 M512.1,63.1 L512.1,54.1  '/>	<g transform="translate(512.1,444.3)" stroke="none" fill="black" font-family="Arial" font-size="12.00"  text-anchor="middle">
		<text><tspan font-family="Arial" > 8</tspan></text>
	</g>
</g>
<g fill="none" color="black" stroke="currentColor" stroke-width="1.00" stroke-linecap="butt" stroke-linejoin="miter">
	<path stroke='black'  d='M566.0,413.4 L566.0,422.4 M566.0,63.1 L566.0,54.1  '/>	<g transform="translate(566.0,444.3)" stroke="none" fill="black" font-family="Arial" font-size="12.00"  text-anchor="middle">
		<text><tspan font-family="Arial" > 9</tspan></text>
	</g>
</g>
<g fill="none" color="black" stroke="currentColor" stroke-width="1.00" stroke-linecap="butt" stroke-linejoin="miter">
</g>
<g fill="none" color="black" stroke="currentColor" stroke-width="1.00" stroke-linecap="butt" stroke-linejoin="miter">
	<path stroke='black'  d='M80.9,63.1 L80.9,413.4 L566.0,413.4 L566.0,63.1 L80.9,63.1 Z  '/></g>
<g fill="none" color="black" stroke="currentColor" stroke-width="1.00" stroke-linecap="butt" stroke-linejoin="miter">
	<g transform="translate(17.0,238.3) rotate(270)" stroke="none" fill="black" font-family="Arial" font-size="12.00"  text-anchor="middle">
		<text><tspan font-family="Arial" >bla bla</tspan></text>
	</g>
</g>
<g fill="none" color="black" stroke="currentColor" stroke-width="1.00" stroke-linecap="butt" stroke-linejoin="miter">
	<g transform="translate(323.4,471.3)" stroke="none" fill="black" font-family="Arial" font-size="12.00"  text-anchor="middle">
		<text><tspan font-family="Arial" >t</tspan></text>
	</g>
</g>
<g fill="none" color="black" stroke="currentColor" stroke-width="1.00" stroke-linecap="butt" stroke-linejoin="miter">
	<g transform="translate(323.4,31.0)" stroke="none" fill="black" font-family="Arial" font-size="12.00"  text-anchor="middle">
		<text><tspan font-family="Arial" >blu blu</tspan></text>
	</g>
</g>
	<g id="gnuplot_plot_1" ><title>rmax = 1</title>
<g fill="none" color="black" stroke="currentColor" stroke-width="1.00" stroke-linecap="butt" stroke-linejoin="miter">
	<g transform="translate(498.9,85.0)" stroke="none" fill="black" font-family="Arial" font-size="12.00"  text-anchor="end">
		<text><tspan font-family="Arial" >r</tspan><tspan font-family="Arial"  font-size="9.6" dy="3.60px">max</tspan><tspan font-family="Arial"  font-size="12.0" dy="-3.60px"> = 1</tspan></text>
	</g>
</g>
<g fill="none" color="black" stroke="currentColor" stroke-width="1.00" stroke-linecap="butt" stroke-linejoin="miter">
	<path stroke='rgb(148,   0, 211)'  d='M507.2,81.1 L549.4,81.1 M507.2,76.6 L507.2,85.6 M549.4,76.6 L549.4,85.6 M106.2,117.0 L106.2,80.6
		M101.7,117.0 L110.7,117.0 M101.7,80.6 L110.7,80.6 M156.9,206.0 L156.9,189.2 M152.4,206.0 L161.4,206.0
		M152.4,189.2 L161.4,189.2 M208.1,254.4 L208.1,216.5 M203.6,254.4 L212.6,254.4 M203.6,216.5 L212.6,216.5
		M258.8,307.6 L258.8,293.6 M254.3,307.6 L263.3,307.6 M254.3,293.6 L263.3,293.6 M309.4,347.5 L309.4,326.5
		M304.9,347.5 L313.9,347.5 M304.9,326.5 L313.9,326.5 M360.1,357.4 L360.1,341.9 M355.6,357.4 L364.6,357.4
		M355.6,341.9 L364.6,341.9 M411.3,384.0 L411.3,365.8 M406.8,384.0 L415.8,384.0 M406.8,365.8 L415.8,365.8
		M462.0,385.4 L462.0,375.6 M457.5,385.4 L466.5,385.4 M457.5,375.6 L466.5,375.6 M512.6,392.4 L512.6,371.4
		M508.1,392.4 L517.1,392.4 M508.1,371.4 L517.1,371.4 M563.3,402.2 L563.3,389.6 M558.8,402.2 L566.0,402.2
		M558.8,389.6 L566.0,389.6  '/>	<use xlink:href='#gpPt0' transform='translate(106.2,98.8) scale(4.50)' color='rgb(148,   0, 211)'/>
	<use xlink:href='#gpPt0' transform='translate(156.9,197.6) scale(4.50)' color='rgb(148,   0, 211)'/>
	<use xlink:href='#gpPt0' transform='translate(208.1,235.4) scale(4.50)' color='rgb(148,   0, 211)'/>
	<use xlink:href='#gpPt0' transform='translate(258.8,300.6) scale(4.50)' color='rgb(148,   0, 211)'/>
	<use xlink:href='#gpPt0' transform='translate(309.4,337.0) scale(4.50)' color='rgb(148,   0, 211)'/>
	<use xlink:href='#gpPt0' transform='translate(360.1,349.6) scale(4.50)' color='rgb(148,   0, 211)'/>
	<use xlink:href='#gpPt0' transform='translate(411.3,374.9) scale(4.50)' color='rgb(148,   0, 211)'/>
	<use xlink:href='#gpPt0' transform='translate(462.0,380.5) scale(4.50)' color='rgb(148,   0, 211)'/>
	<use xlink:href='#gpPt0' transform='translate(512.6,381.9) scale(4.50)' color='rgb(148,   0, 211)'/>
	<use xlink:href='#gpPt0' transform='translate(563.3,395.9) scale(4.50)' color='rgb(148,   0, 211)'/>
	<use xlink:href='#gpPt0' transform='translate(528.3,81.1) scale(4.50)' color='rgb(148,   0, 211)'/>
</g>
	</g>
	<g id="gnuplot_plot_2" ><title>"out_lsf.txt"</title>
<g fill="none" color="black" stroke="currentColor" stroke-width="1.00" stroke-linecap="butt" stroke-linejoin="miter">
	<g transform="translate(498.9,103.0)" stroke="none" fill="black" font-family="Arial" font-size="12.00"  text-anchor="end">
		<text>"out_lsf.txt"</text>
	</g>
</g>
<g fill="none" color="black" stroke="currentColor" stroke-width="1.00" stroke-linecap="butt" stroke-linejoin="miter">
	<path stroke='rgb(  0, 158, 115)'  d='M507.2,99.1 L549.4,99.1 M106.2,105.1 L107.3,107.3 L108.4,109.5 L109.5,111.7 L110.5,113.8 L111.6,116.0
		L112.7,118.1 L113.8,120.2 L114.9,122.3 L115.9,124.4 L117.0,126.5 L118.1,128.5 L119.2,130.6 L120.2,132.6
		L121.3,134.6 L122.4,136.6 L123.5,138.6 L124.6,140.6 L125.6,142.5 L126.7,144.5 L127.8,146.4 L128.9,148.3
		L129.9,150.2 L131.0,152.1 L132.1,153.9 L133.2,155.8 L134.3,157.6 L135.3,159.5 L136.4,161.3 L137.5,163.1
		L138.6,164.9 L139.7,166.6 L140.7,168.4 L141.8,170.2 L142.9,171.9 L144.0,173.6 L145.0,175.3 L146.1,177.0
		L147.2,178.7 L148.3,180.4 L149.4,182.0 L150.4,183.7 L151.5,185.3 L152.6,187.0 L153.7,188.6 L154.7,190.2
		L155.8,191.8 L156.9,193.3 L158.0,194.9 L159.1,196.5 L160.1,198.0 L161.2,199.5 L162.3,201.1 L163.4,202.6
		L164.4,204.1 L165.5,205.6 L166.6,207.0 L167.7,208.5 L168.8,210.0 L169.8,211.4 L170.9,212.8 L172.0,214.3
		L173.1,215.7 L174.1,217.1 L175.2,218.5 L176.3,219.9 L177.4,221.2 L178.5,222.6 L179.5,223.9 L180.6,225.3
		L181.7,226.6 L182.8,227.9 L183.8,229.3 L184.9,230.6 L186.0,231.9 L187.1,233.1 L188.2,234.4 L189.2,235.7
		L190.3,236.9 L191.4,238.2 L192.5,239.4 L193.6,240.7 L194.6,241.9 L195.7,243.1 L196.8,244.3 L197.9,245.5
		L198.9,246.7 L200.0,247.9 L201.1,249.0 L202.2,250.2 L203.3,251.3 L204.3,252.5 L205.4,253.6 L206.5,254.7
		L207.6,255.9 L208.6,257.0 L209.7,258.1 L210.8,259.2 L211.9,260.2 L213.0,261.3 L214.0,262.4 L215.1,263.5
		L216.2,264.5 L217.3,265.6 L218.3,266.6 L219.4,267.6 L220.5,268.6 L221.6,269.7 L222.7,270.7 L223.7,271.7
		L224.8,272.7 L225.9,273.7 L227.0,274.6 L228.0,275.6 L229.1,276.6 L230.2,277.5 L231.3,278.5 L232.4,279.4
		L233.4,280.4 L234.5,281.3 L235.6,282.2 L236.7,283.1 L237.7,284.0 L238.8,284.9 L239.9,285.8 L241.0,286.7
		L242.1,287.6 L243.1,288.5 L244.2,289.4 L245.3,290.2 L246.4,291.1 L247.5,291.9 L248.5,292.8 L249.6,293.6
		L250.7,294.5 L251.8,295.3 L252.8,296.1 L253.9,296.9 L255.0,297.7 L256.1,298.5 L257.2,299.3 L258.2,300.1
		L259.3,300.9 L260.4,301.7 L261.5,302.5 L262.5,303.2 L263.6,304.0 L264.7,304.8 L265.8,305.5 L266.9,306.2
		L267.9,307.0 L269.0,307.7 L270.1,308.5 L271.2,309.2 L272.2,309.9 L273.3,310.6 L274.4,311.3 L275.5,312.0
		L276.6,312.7 L277.6,313.4 L278.7,314.1 L279.8,314.8 L280.9,315.5 L281.9,316.1 L283.0,316.8 L284.1,317.5
		L285.2,318.1 L286.3,318.8 L287.3,319.4 L288.4,320.1 L289.5,320.7 L290.6,321.4 L291.6,322.0 L292.7,322.6
		L293.8,323.2 L294.9,323.8 L296.0,324.5 L297.0,325.1 L298.1,325.7 L299.2,326.3 L300.3,326.9 L301.4,327.5
		L302.4,328.0 L303.5,328.6 L304.6,329.2 L305.7,329.8 L306.7,330.3 L307.8,330.9 L308.9,331.5 L310.0,332.0
		L311.1,332.6 L312.1,333.1 L313.2,333.7 L314.3,334.2 L315.4,334.7 L316.4,335.3 L317.5,335.8 L318.6,336.3
		L319.7,336.9 L320.8,337.4 L321.8,337.9 L322.9,338.4 L324.0,338.9 L325.1,339.4 L326.1,339.9 L327.2,340.4
		L328.3,340.9 L329.4,341.4 L330.5,341.9 L331.5,342.3 L332.6,342.8 L333.7,343.3 L334.8,343.8 L335.8,344.2
		L336.9,344.7 L338.0,345.1 L339.1,345.6 L340.2,346.1 L341.2,346.5 L342.3,346.9 L343.4,347.4 L344.5,347.8
		L345.5,348.3 L346.6,348.7 L347.7,349.1 L348.8,349.6 L349.9,350.0 L350.9,350.4 L352.0,350.8 L353.1,351.2
		L354.2,351.6 L355.3,352.1 L356.3,352.5 L357.4,352.9 L358.5,353.3 L359.6,353.7 L360.6,354.1 L361.7,354.4
		L362.8,354.8 L363.9,355.2 L365.0,355.6 L366.0,356.0 L367.1,356.4 L368.2,356.7 L369.3,357.1 L370.3,357.5
		L371.4,357.8 L372.5,358.2 L373.6,358.6 L374.7,358.9 L375.7,359.3 L376.8,359.6 L377.9,360.0 L379.0,360.3
		L380.0,360.7 L381.1,361.0 L382.2,361.4 L383.3,361.7 L384.4,362.0 L385.4,362.4 L386.5,362.7 L387.6,363.0
		L388.7,363.3 L389.7,363.7 L390.8,364.0 L391.9,364.3 L393.0,364.6 L394.1,364.9 L395.1,365.3 L396.2,365.6
		L397.3,365.9 L398.4,366.2 L399.4,366.5 L400.5,366.8 L401.6,367.1 L402.7,367.4 L403.8,367.7 L404.8,368.0
		L405.9,368.2 L407.0,368.5 L408.1,368.8 L409.2,369.1 L410.2,369.4 L411.3,369.7 L412.4,369.9 L413.5,370.2
		L414.5,370.5 L415.6,370.8 L416.7,371.0 L417.8,371.3 L418.9,371.6 L419.9,371.8 L421.0,372.1 L422.1,372.3
		L423.2,372.6 L424.2,372.9 L425.3,373.1 L426.4,373.4 L427.5,373.6 L428.6,373.9 L429.6,374.1 L430.7,374.3
		L431.8,374.6 L432.9,374.8 L433.9,375.1 L435.0,375.3 L436.1,375.5 L437.2,375.8 L438.3,376.0 L439.3,376.2
		L440.4,376.5 L441.5,376.7 L442.6,376.9 L443.6,377.1 L444.7,377.4 L445.8,377.6 L446.9,377.8 L448.0,378.0
		L449.0,378.2 L450.1,378.5 L451.2,378.7 L452.3,378.9 L453.3,379.1 L454.4,379.3 L455.5,379.5 L456.6,379.7
		L457.7,379.9 L458.7,380.1 L459.8,380.3 L460.9,380.5 L462.0,380.7 L463.1,380.9 L464.1,381.1 L465.2,381.3
		L466.3,381.5 L467.4,381.7 L468.4,381.9 L469.5,382.1 L470.6,382.2 L471.7,382.4 L472.8,382.6 L473.8,382.8
		L474.9,383.0 L476.0,383.1 L477.1,383.3 L478.1,383.5 L479.2,383.7 L480.3,383.9 L481.4,384.0 L482.5,384.2
		L483.5,384.4 L484.6,384.5 L485.7,384.7 L486.8,384.9 L487.8,385.0 L488.9,385.2 L490.0,385.4 L491.1,385.5
		L492.2,385.7 L493.2,385.8 L494.3,386.0 L495.4,386.2 L496.5,386.3 L497.5,386.5 L498.6,386.6 L499.7,386.8
		L500.8,386.9 L501.9,387.1 L502.9,387.2 L504.0,387.4 L505.1,387.5 L506.2,387.7 L507.2,387.8 L508.3,388.0
		L509.4,388.1 L510.5,388.3 L511.6,388.4 L512.6,388.5 L513.7,388.7 L514.8,388.8 L515.9,388.9 L517.0,389.1
		L518.0,389.2 L519.1,389.4 L520.2,389.5 L521.3,389.6 L522.3,389.7 L523.4,389.9 L524.5,390.0 L525.6,390.1
		L526.7,390.3 L527.7,390.4 L528.8,390.5 L529.9,390.6 L531.0,390.8 L532.0,390.9 L533.1,391.0 L534.2,391.1
		L535.3,391.2 L536.4,391.4 L537.4,391.5 L538.5,391.6 L539.6,391.7 L540.7,391.8 L541.7,391.9 L542.8,392.1
		L543.9,392.2 L545.0,392.3 L546.1,392.4 L547.1,392.5 L548.2,392.6 L549.3,392.7 L550.4,392.8 L551.4,392.9
		L552.5,393.0 L553.6,393.2 L554.7,393.3 L555.8,393.4 L556.8,393.5 L557.9,393.6 L559.0,393.7 L560.1,393.8
		L561.1,393.9 L562.2,394.0 L563.3,394.1  '/></g>
	</g>
<g fill="none" color="#FFFFFF" stroke="rgb(  0, 158, 115)" stroke-width="2.00" stroke-linecap="butt" stroke-linejoin="miter">
</g>
<g fill="none" color="black" stroke="currentColor" stroke-width="2.00" stroke-linecap="butt" stroke-linejoin="miter">
</g>
<g fill="none" color="black" stroke="black" stroke-width="1.00" stroke-linecap="butt" stroke-linejoin="miter">
</g>
<g fill="none" color="black" stroke="currentColor" stroke-width="1.00" stroke-linecap="butt" stroke-linejoin="miter">
	<path stroke='black'  d='M80.9,63.1 L80.9,413.4 L566.0,413.4 L566.0,63.1 L80.9,63.1 Z  '/></g>
<g fill="none" color="black" stroke="currentColor" stroke-width="1.00" stroke-linecap="butt" stroke-linejoin="miter">
</g>
</g>
</svg>

