<?xml version="1.0" encoding="utf-8"  standalone="no"?>
<svg 
 width="600" height="480"
 viewBox="0 0 600 480"
 xmlns="http://www.w3.org/2000/svg"
 xmlns:xlink="http://www.w3.org/1999/xlink"
>

<title>Gnuplot</title>
<desc>Produced by GNUPLOT 5.0 patchlevel 7 </desc>

<g id="gnuplot_canvas">

<rect x="0" y="0" width="600" height="480" fill="none"/>
<defs>

	<circle id='gpDot' r='0.5' stroke-width='0.5'/>
	<path id='gpPt0' stroke-width='0.222' stroke='currentColor' d='M-1,0 h2 M0,-1 v2'/>
	<path id='gpPt1' stroke-width='0.222' stroke='currentColor' d='M-1,-1 L1,1 M1,-1 L-1,1'/>
	<path id='gpPt2' stroke-width='0.222' stroke='currentColor' d='M-1,0 L1,0 M0,-1 L0,1 M-1,-1 L1,1 M-1,1 L1,-1'/>
	<rect id='gpPt3' stroke-width='0.222' stroke='currentColor' x='-1' y='-1' width='2' height='2'/>
	<rect id='gpPt4' stroke-width='0.222' stroke='currentColor' fill='currentColor' x='-1' y='-1' width='2' height='2'/>
	<circle id='gpPt5' stroke-width='0.222' stroke='currentColor' cx='0' cy='0' r='1'/>
	<use xlink:href='#gpPt5' id='gpPt6' fill='currentColor' stroke='none'/>
	<path id='gpPt7' stroke-width='0.222' stroke='currentColor' d='M0,-1.33 L-1.33,0.67 L1.33,0.67 z'/>
	<use xlink:href='#gpPt7' id='gpPt8' fill='currentColor' stroke='none'/>
	<use xlink:href='#gpPt7' id='gpPt9' stroke='currentColor' transform='rotate(180)'/>
	<use xlink:href='#gpPt9' id='gpPt10' fill='currentColor' stroke='none'/>
	<use xlink:href='#gpPt3' id='gpPt11' stroke='currentColor' transform='rotate(45)'/>
	<use xlink:href='#gpPt11' id='gpPt12' fill='currentColor' stroke='none'/>
	<path id='gpPt13' stroke-width='0.222' stroke='currentColor' d='M0,1.330 L1.265,0.411 L0.782,-1.067 L-0.782,-1.076 L-1.265,0.411 z'/>
	<use xlink:href='#gpPt13' id='gpPt14' fill='currentColor' stroke='none'/>
	<filter id='textbox' filterUnits='objectBoundingBox' x='0' y='0' height='1' width='1'>
	  <feFlood flood-color='white' flood-opacity='1' result='bgnd'/>
	  <feComposite in='SourceGraphic' in2='bgnd' operator='atop'/>
	</filter>
	<filter id='greybox' filterUnits='objectBoundingBox' x='0' y='0' height='1' width='1'>
	  <feFlood flood-color='lightgrey' flood-opacity='1' result='grey'/>
	  <feComposite in='SourceGraphic' in2='grey' operator='atop'/>
	</filter>
</defs>
<g fill="none" color="white" stroke="currentColor" stroke-width="1.00" stroke-linecap="butt" stroke-linejoin="miter">
</g>
<g fill="none" color="black" stroke="currentColor" stroke-width="1.00" stroke-linecap="butt" stroke-linejoin="miter">
	<path stroke='black'  d='M71.9,422.4 L80.9,422.4 M516.2,422.4 L507.2,422.4  '/>	<g transform="translate(63.6,426.3)" stroke="none" fill="black" font-family="Arial" font-size="12.00"  text-anchor="end">
		<text><tspan font-family="Arial" >-1.5</tspan></text>
	</g>
</g>
<g fill="none" color="black" stroke="currentColor" stroke-width="1.00" stroke-linecap="butt" stroke-linejoin="miter">
	<path stroke='black'  d='M71.9,361.0 L80.9,361.0 M516.2,361.0 L507.2,361.0  '/>	<g transform="translate(63.6,364.9)" stroke="none" fill="black" font-family="Arial" font-size="12.00"  text-anchor="end">
		<text><tspan font-family="Arial" >-1</tspan></text>
	</g>
</g>
<g fill="none" color="black" stroke="currentColor" stroke-width="1.00" stroke-linecap="butt" stroke-linejoin="miter">
	<path stroke='black'  d='M71.9,299.6 L80.9,299.6 M516.2,299.6 L507.2,299.6  '/>	<g transform="translate(63.6,303.5)" stroke="none" fill="black" font-family="Arial" font-size="12.00"  text-anchor="end">
		<text><tspan font-family="Arial" >-0.5</tspan></text>
	</g>
</g>
<g fill="none" color="black" stroke="currentColor" stroke-width="1.00" stroke-linecap="butt" stroke-linejoin="miter">
	<path stroke='black'  d='M71.9,238.2 L80.9,238.2 M516.2,238.2 L507.2,238.2  '/>	<g transform="translate(63.6,242.1)" stroke="none" fill="black" font-family="Arial" font-size="12.00"  text-anchor="end">
		<text><tspan font-family="Arial" > 0</tspan></text>
	</g>
</g>
<g fill="none" color="black" stroke="currentColor" stroke-width="1.00" stroke-linecap="butt" stroke-linejoin="miter">
	<path stroke='black'  d='M71.9,176.9 L80.9,176.9 M516.2,176.9 L507.2,176.9  '/>	<g transform="translate(63.6,180.8)" stroke="none" fill="black" font-family="Arial" font-size="12.00"  text-anchor="end">
		<text><tspan font-family="Arial" > 0.5</tspan></text>
	</g>
</g>
<g fill="none" color="black" stroke="currentColor" stroke-width="1.00" stroke-linecap="butt" stroke-linejoin="miter">
	<path stroke='black'  d='M71.9,115.5 L80.9,115.5 M516.2,115.5 L507.2,115.5  '/>	<g transform="translate(63.6,119.4)" stroke="none" fill="black" font-family="Arial" font-size="12.00"  text-anchor="end">
		<text><tspan font-family="Arial" > 1</tspan></text>
	</g>
</g>
<g fill="none" color="black" stroke="currentColor" stroke-width="1.00" stroke-linecap="butt" stroke-linejoin="miter">
	<path stroke='black'  d='M71.9,54.1 L80.9,54.1 M516.2,54.1 L507.2,54.1  '/>	<g transform="translate(63.6,58.0)" stroke="none" fill="black" font-family="Arial" font-size="12.00"  text-anchor="end">
		<text><tspan font-family="Arial" > 1.5</tspan></text>
	</g>
</g>
<g fill="none" color="black" stroke="currentColor" stroke-width="1.00" stroke-linecap="butt" stroke-linejoin="miter">
	<path stroke='black'  d='M71.9,422.4 L71.9,413.4 M71.9,54.1 L71.9,63.1  '/>	<g transform="translate(71.9,444.3)" stroke="none" fill="black" font-family="Arial" font-size="12.00"  text-anchor="middle">
		<text><tspan font-family="Arial" >-1</tspan></text>
	</g>
</g>
<g fill="none" color="black" stroke="currentColor" stroke-width="1.00" stroke-linecap="butt" stroke-linejoin="miter">
	<path stroke='black'  d='M146.0,422.4 L146.0,413.4 M146.0,54.1 L146.0,63.1  '/>	<g transform="translate(146.0,444.3)" stroke="none" fill="black" font-family="Arial" font-size="12.00"  text-anchor="middle">
		<text><tspan font-family="Arial" >-0.5</tspan></text>
	</g>
</g>
<g fill="none" color="black" stroke="currentColor" stroke-width="1.00" stroke-linecap="butt" stroke-linejoin="miter">
	<path stroke='black'  d='M220.0,422.4 L220.0,413.4 M220.0,54.1 L220.0,63.1  '/>	<g transform="translate(220.0,444.3)" stroke="none" fill="black" font-family="Arial" font-size="12.00"  text-anchor="middle">
		<text><tspan font-family="Arial" > 0</tspan></text>
	</g>
</g>
<g fill="none" color="black" stroke="currentColor" stroke-width="1.00" stroke-linecap="butt" stroke-linejoin="miter">
	<path stroke='black'  d='M294.1,422.4 L294.1,413.4 M294.1,54.1 L294.1,63.1  '/>	<g transform="translate(294.1,444.3)" stroke="none" fill="black" font-family="Arial" font-size="12.00"  text-anchor="middle">
		<text><tspan font-family="Arial" > 0.5</tspan></text>
	</g>
</g>
<g fill="none" color="black" stroke="currentColor" stroke-width="1.00" stroke-linecap="butt" stroke-linejoin="miter">
	<path stroke='black'  d='M368.1,422.4 L368.1,413.4 M368.1,54.1 L368.1,63.1  '/>	<g transform="translate(368.1,444.3)" stroke="none" fill="black" font-family="Arial" font-size="12.00"  text-anchor="middle">
		<text><tspan font-family="Arial" > 1</tspan></text>
	</g>
</g>
<g fill="none" color="black" stroke="currentColor" stroke-width="1.00" stroke-linecap="butt" stroke-linejoin="miter">
	<path stroke='black'  d='M442.2,422.4 L442.2,413.4 M442.2,54.1 L442.2,63.1  '/>	<g transform="translate(442.2,444.3)" stroke="none" fill="black" font-family="Arial" font-size="12.00"  text-anchor="middle">
		<text><tspan font-family="Arial" > 1.5</tspan></text>
	</g>
</g>
<g fill="none" color="black" stroke="currentColor" stroke-width="1.00" stroke-linecap="butt" stroke-linejoin="miter">
	<path stroke='black'  d='M516.2,422.4 L516.2,413.4 M516.2,54.1 L516.2,63.1  '/>	<g transform="translate(516.2,444.3)" stroke="none" fill="black" font-family="Arial" font-size="12.00"  text-anchor="middle">
		<text><tspan font-family="Arial" > 2</tspan></text>
	</g>
</g>
<g fill="none" color="black" stroke="currentColor" stroke-width="1.00" stroke-linecap="butt" stroke-linejoin="miter">
</g>
<g fill="none" color="black" stroke="currentColor" stroke-width="1.00" stroke-linecap="butt" stroke-linejoin="miter">
	<path stroke='black'  d='M71.9,54.1 L71.9,422.4 L516.2,422.4 L516.2,54.1 L71.9,54.1 Z  '/></g>
<g fill="none" color="black" stroke="currentColor" stroke-width="1.00" stroke-linecap="butt" stroke-linejoin="miter">
	<g transform="translate(17.0,238.3) rotate(270)" stroke="none" fill="black" font-family="Arial" font-size="12.00"  text-anchor="middle">
		<text><tspan font-family="Arial" >y</tspan></text>
	</g>
</g>
<g fill="none" color="black" stroke="currentColor" stroke-width="1.00" stroke-linecap="butt" stroke-linejoin="miter">
	<g transform="translate(294.0,471.3)" stroke="none" fill="black" font-family="Arial" font-size="12.00"  text-anchor="middle">
		<text><tspan font-family="Arial" >x</tspan></text>
	</g>
</g>
<g fill="none" color="black" stroke="currentColor" stroke-width="1.00" stroke-linecap="butt" stroke-linejoin="miter">
	<g transform="translate(294.0,31.0)" stroke="none" fill="black" font-family="Arial" font-size="12.00"  text-anchor="middle">
		<text><tspan font-family="Arial" >Orbit</tspan></text>
	</g>
</g>
	<g id="gnuplot_plot_1" ><title>gnuplot_plot_1</title>
<g fill="none" color="black" stroke="currentColor" stroke-width="1.00" stroke-linecap="butt" stroke-linejoin="miter">
	<path stroke='rgb(148,   0, 211)'  d='M220.0,115.5 L243.9,107.1 L271.4,100.6 L302.3,97.0 L336.5,97.1 L373.1,102.0 L410.7,112.8 L446.9,130.4
		L478.5,154.9 L502.2,185.8 L514.7,220.9 L514.3,257.6 L501.1,292.6 L476.9,323.1 L444.9,347.3 L408.6,364.5
		L371.1,374.9 L334.5,379.6 L300.5,379.4 L269.7,375.6 L242.5,369.0 L218.8,360.5 L198.3,350.6 L181.0,339.8
		L166.3,328.4 L154.2,316.6 L144.2,304.6 L136.2,292.4 L130.1,280.2 L125.6,267.9 L122.8,255.6 L121.4,243.4
		L121.5,231.1 L123.1,218.8 L126.3,206.5 L131.0,194.3 L137.4,182.0 L145.7,169.9 L156.1,157.9 L168.6,146.2
		L183.7,134.8 L201.6,124.1 L222.5,114.5 L246.8,106.2 L274.7,100.1 L306.0,96.8 L340.5,97.4 L377.3,102.9
		L414.9,114.4 L450.7,132.8 L481.6,158.1 L504.2,189.5 L515.3,225.0 L513.5,261.7 L498.9,296.3 L473.6,326.2
		L441.0,349.6 L404.4,366.0 L366.9,375.7 L330.6,379.8 L296.9,379.1 L266.5,375.0 L239.7,368.1 L216.3,359.4
		L196.3,349.4 L179.2,338.6 L164.9,327.1 L152.9,315.3 L143.2,303.2 L135.5,291.0 L129.5,278.8 L125.2,266.5
		L122.5,254.3 L121.3,242.0 L121.6,229.7 L123.4,217.4 L126.7,205.2 L131.6,192.9 L138.3,180.7 L146.8,168.5
		L157.3,156.6 L170.2,144.9 L185.5,133.6 L203.7,123.0 L225.1,113.5 L249.8,105.4 L278.0,99.5 L309.7,96.6
		L344.6,97.7 L381.6,103.9 L419.0,116.1 L454.5,135.3 L484.6,161.4 L506.0,193.3 L515.8,229.1 L512.5,265.7
		L496.5,299.9 L470.3,329.1 L437.0,351.8 L400.2,367.4 L362.7,376.4 L326.6,379.9 L293.3,378.8 L263.3,374.3
		L236.9,367.3 L213.9,358.4 L194.2,348.3 L177.5,337.3 L163.4,325.8 L151.7,313.9 L142.3,301.8 L134.7,289.7
		L129.0,277.4 L124.9,265.2 L122.3,252.9 L121.3,240.6 L121.8,228.3 L123.7,216.1 L127.2,203.8 L132.3,191.5
		L139.1,179.3 L147.9,167.2 L158.7,155.2 L171.8,143.6 L187.4,132.4 L206.0,121.9 L227.7,112.5 L252.7,104.6
		L281.4,99.1 L313.5,96.5 L348.6,98.1 L385.8,104.9 L423.2,117.9 L458.2,137.9 L487.5,164.7 L507.7,197.2
		L516.1,233.3 L511.3,269.7 L494.0,303.5 L466.8,332.0 L433.0,353.9 L396.0,368.7 L358.6,377.1 L322.8,380.0
		L289.8,378.5 L260.2,373.6 L234.1,366.3 L211.5,357.3 L192.2,347.1 L175.8,336.0 L162.0,324.5 L150.6,312.6
		L141.3,300.5 L134.0,288.3 L128.4,276.0 L124.5,263.8 L122.1,251.5 L121.3,239.2 L121.9,227.0 L124.0,214.7
		L127.7,202.4 L133.0,190.2 L140.0,178.0 L149.0,165.8 L160.0,153.9 L173.4,142.3 L189.4,131.1 L208.2,120.8
		L230.3,111.5 L255.8,103.9 L284.8,98.6 L317.3,96.5 L352.7,98.6 L390.0,106.0 L427.3,119.8 L461.8,140.5
		L490.3,168.1 L509.3,201.1 L516.2,237.4 L509.9,273.7 L491.4,307.0 L463.3,334.8 L429.0,355.9 L391.8,370.0
		L354.4,377.7 L318.9,380.0 L286.3,378.1 L257.1,372.9 L231.4,365.4 L209.2,356.2 L190.2,345.9 L174.1,334.8
		L160.6,323.1 L149.4,311.2 L140.4,299.1 L133.3,286.9 L127.9,274.7 L124.2,262.4 L122.0,250.1 L121.3,237.9
		L122.1,225.6 L124.3,213.3 L128.2,201.0 L133.7,188.8 L140.9,176.6 L150.1,164.5 L161.4,152.6 L175.0,141.0
		L191.3,129.9 L210.6,119.7 L233.0,110.6 L258.9,103.2 L288.3,98.2 L321.1,96.5 L356.8,99.2 L394.2,107.3
		L431.3,121.8 L465.4,143.3 L493.0,171.5 L510.7,205.1 L516.1,241.5 L508.4,277.6 L488.7,310.4 L459.7,337.5
		L424.9,357.8 L387.5,371.1 L350.3,378.2 L315.1,380.0 L282.8,377.6 L254.0,372.2 L228.8,364.4 L206.9,355.1
		L188.3,344.7 L172.4,333.5 L159.2,321.8 L148.3,309.9 L139.5,297.8 L132.6,285.6 L127.4,273.3 L123.8,261.0
		L121.8,248.8 L121.3,236.5 L122.2,224.2 L124.7,211.9 L128.7,199.7 L134.4,187.4 L141.9,175.2 L151.3,163.1
		L162.8,151.3 L176.7,139.7 L193.3,128.7 L212.9,118.6 L235.7,109.6 L262.0,102.5 L291.8,97.8 L325.0,96.6
		L361.0,99.8 L398.4,108.5 L435.3,123.9 L468.8,146.2 L495.5,175.1 L512.0,209.1 L515.9,245.6 L506.8,281.5
		L485.9,313.8 L456.0,340.1 L420.8,359.6 L383.3,372.2 L346.3,378.6 L311.3,379.9 L279.4,377.2 L251.0,371.4
		L226.2,363.5 L204.7,354.0 L186.3,343.4 L170.8,332.2 L157.9,320.5 L147.2,308.5 L138.6,296.4 L131.9,284.2
		L126.9,271.9 L123.5,259.7 L121.7,247.4 L121.3,235.1 L122.4,222.8 L125.1,210.5 L129.3,198.3 L135.1,186.0
		L142.8,173.9 L152.4,161.8 L164.2,150.0 L178.5,138.5 L195.4,127.6 L215.3,117.5 L238.5,108.7 L265.1,101.8
		L295.4,97.5 L328.9,96.7 L365.1,100.5 L402.6,109.9 L439.3,126.0 L472.2,149.1 L497.9,178.7 L513.1,213.1
		L515.5,249.8 L505.0,285.4 L482.9,317.0 L452.3,342.7 L416.6,361.4 L379.1,373.2 L342.2,379.0 L307.6,379.8
		L276.1,376.7 L248.1,370.6 L223.6,362.5 L202.5,352.8 L184.5,342.2 L169.3,330.9 L156.6,319.2 L146.2,307.2
		L137.8,295.0 L131.3,282.8 L126.5,270.5 L123.2,258.3 L121.6,246.0 L121.4,233.7 L122.7,221.4 L125.5,209.2
		L129.9,196.9 L135.9,184.7 L143.8,172.5 L153.6,160.5 L165.7,148.7 L180.2,137.2 L197.5,126.4 L217.7,116.4
		L241.3,107.8 L268.4,101.2 L299.0,97.2 L332.9,96.9 L369.3,101.2 L406.8,111.4 L443.3,128.2 L475.5,152.1
		L500.2,182.3 L514.0,217.2 L515.0,253.9 L503.0,289.2 L479.8,320.2 L448.5,345.1 L412.5,363.0 L374.9,374.2
		L338.2,379.3 L303.9,379.6 L272.7,376.1 L245.1,369.8 L221.1,361.4 L200.3,351.7 L182.6,341.0 L167.7,329.6
		L155.3,317.8 L145.1,305.8 L137.0,293.7 L130.7,281.4 L126.0,269.2 L123.0,256.9 L121.5,244.6 L121.4,232.3
		L122.9,220.1 L125.9,207.8 L130.4,195.5 L136.7,183.3 L144.8,171.1 L154.9,159.1 L167.2,147.3 L182.0,136.0
		L199.6,125.2 L220.2,115.4 L244.1,107.0 L271.6,100.6 L302.6,97.0 L336.8,97.1 L373.5,102.0 L411.0,112.9
		L447.2,130.6 L478.8,155.2 L502.3,186.0 L514.8,221.2 L514.3,257.9 L500.9,292.9 L476.7,323.4 L444.6,347.5
		L408.3,364.6 L370.7,375.0 L334.2,379.6 L300.2,379.4 L269.5,375.5 L242.3,368.9 L218.6,360.4 L198.2,350.5
		L180.8,339.7 L166.2,328.3 L154.1,316.5 L144.1,304.5 L136.2,292.3 L130.1,280.1 L125.6,267.8 L122.7,255.5
		L121.4,243.2 L121.5,231.0 L123.2,218.7 L126.3,206.4 L131.1,194.2 L137.5,181.9 L145.8,169.8 L156.2,157.8
		L168.7,146.0 L183.8,134.7 L201.7,124.1 L222.7,114.4 L247.0,106.2 L274.9,100.0 L306.3,96.8 L340.8,97.4
		L377.7,103.0 L415.2,114.6 L451.0,133.0 L481.9,158.4 L504.3,189.8 L515.4,225.3  '/></g>
	</g>
<g fill="none" color="white" stroke="rgb(148,   0, 211)" stroke-width="2.00" stroke-linecap="butt" stroke-linejoin="miter">
</g>
<g fill="none" color="black" stroke="currentColor" stroke-width="2.00" stroke-linecap="butt" stroke-linejoin="miter">
</g>
<g fill="none" color="black" stroke="black" stroke-width="1.00" stroke-linecap="butt" stroke-linejoin="miter">
</g>
<g fill="none" color="black" stroke="currentColor" stroke-width="1.00" stroke-linecap="butt" stroke-linejoin="miter">
	<path stroke='black'  d='M71.9,54.1 L71.9,422.4 L516.2,422.4 L516.2,54.1 L71.9,54.1 Z  '/></g>
<g fill="none" color="black" stroke="currentColor" stroke-width="1.00" stroke-linecap="butt" stroke-linejoin="miter">
</g>
</g>
</svg>

